{
  "href" : "https://api.spotify.com/v1/artists/32WkQRZEVKSzVAAYqukAEA/albums?offset=0&limit=20&album_type=single,album,compilation,appears_on,ep",
  "items" : [ {
    "album_type" : "album",
    "available_markets" : [ "CA", "MX", "US" ],
    "external_urls" : {
      "spotify" : "https://open.spotify.com/album/1JHNRou038CfCC0RZztDz8"
    },
    "href" : "https://api.spotify.com/v1/albums/1JHNRou038CfCC0RZztDz8",
    "id" : "1JHNRou038CfCC0RZztDz8",
    "images" : [ {
      "height" : 640,
      "url" : "https://i.scdn.co/image/8adb20b1acfb0451abb5d17045d2e053df92abc9",
      "width" : 640
    }, {
      "height" : 300,
      "url" : "https://i.scdn.co/image/8e0e529f1dd4a690788115dbd3c2c44427b27d3a",
      "width" : 300
    }, {
      "height" : 64,
      "url" : "https://i.scdn.co/image/5f3c979b92559dff2b8dd37faf5eae1aeb394b40",
      "width" : 64
    } ],
    "name" : "747",
    "type" : "album",
    "uri" : "spotify:album:1JHNRou038CfCC0RZztDz8"
  }, {
    "album_type" : "album",
    "available_markets" : [ "AD", "AR", "AT", "AU", "BG", "BO", "BR", "CH", "CL", "CO", "CR", "CY", "CZ", "DE", "DK", "DO", "EC", "EE", "ES", "FI", "FR", "GB", "GT", "HN", "ID", "IE", "IS", "LI", "LT", "LV", "MC", "MT", "MY", "NI", "NL", "NO", "NZ", "PA", "PE", "PH", "PT", "PY", "SE", "SG", "SK", "SV", "TR", "TW", "UY" ],
    "external_urls" : {
      "spotify" : "https://open.spotify.com/album/5lvGpzH4UGGwtyIBx3A5NV"
    },
    "href" : "https://api.spotify.com/v1/albums/5lvGpzH4UGGwtyIBx3A5NV",
    "id" : "5lvGpzH4UGGwtyIBx3A5NV",
    "images" : [ {
      "height" : 640,
      "url" : "https://i.scdn.co/image/77fa2d3609944ff82a1c10ba8d50904b8e1fca85",
      "width" : 640
    }, {
      "height" : 300,
      "url" : "https://i.scdn.co/image/2465e93e75b74dcf29a0b3155c8dce0caec4affb",
      "width" : 300
    }, {
      "height" : 64,
      "url" : "https://i.scdn.co/image/cefbadc9b6a9e7af6875ffa2d601f01b276acaf0",
      "width" : 64
    } ],
    "name" : "747",
    "type" : "album",
    "uri" : "spotify:album:5lvGpzH4UGGwtyIBx3A5NV"
  }, {
    "album_type" : "album",
    "available_markets" : [ "CA", "MX", "US" ],
    "external_urls" : {
      "spotify" : "https://open.spotify.com/album/1NdVdcO73LZQGRFbEDI2Ij"
    },
    "href" : "https://api.spotify.com/v1/albums/1NdVdcO73LZQGRFbEDI2Ij",
    "id" : "1NdVdcO73LZQGRFbEDI2Ij",
    "images" : [ {
      "height" : 640,
      "url" : "https://i.scdn.co/image/985270ecff6b4f422e96a4626caad4e9820ecd6d",
      "width" : 640
    }, {
      "height" : 300,
      "url" : "https://i.scdn.co/image/a3bb16b4e7191b6aee933dfa32e9bd10e5a233ca",
      "width" : 300
    }, {
      "height" : 64,
      "url" : "https://i.scdn.co/image/fd4477e7aee55f51f90da1073b4f6f8e390b82dd",
      "width" : 64
    } ],
    "name" : "747 (Deluxe)",
    "type" : "album",
    "uri" : "spotify:album:1NdVdcO73LZQGRFbEDI2Ij"
  }, {
    "album_type" : "album",
    "available_markets" : [ "AD", "AR", "AT", "AU", "BG", "BO", "BR", "CH", "CL", "CO", "CR", "CY", "CZ", "DE", "DK", "DO", "EC", "EE", "ES", "FI", "FR", "GB", "GT", "HN", "ID", "IE", "IS", "LI", "LT", "LV", "MC", "MT", "MY", "NI", "NL", "NO", "NZ", "PA", "PE", "PH", "PT", "PY", "SE", "SG", "SK", "SV", "TR", "TW", "UY" ],
    "external_urls" : {
      "spotify" : "https://open.spotify.com/album/5pwPik6VKu2r55aO2X7DYC"
    },
    "href" : "https://api.spotify.com/v1/albums/5pwPik6VKu2r55aO2X7DYC",
    "id" : "5pwPik6VKu2r55aO2X7DYC",
    "images" : [ {
      "height" : 640,
      "url" : "https://i.scdn.co/image/1959fa6afcb0cb749ec14b061b02a520a4b7b909",
      "width" : 640
    }, {
      "height" : 300,
      "url" : "https://i.scdn.co/image/c6738c307b60b326af6239ff7aeb04429bf3b17b",
      "width" : 300
    }, {
      "height" : 64,
      "url" : "https://i.scdn.co/image/b2d098d70571a61478bd3bf1bc64928f43df13c0",
      "width" : 64
    } ],
    "name" : "747 (Deluxe)",
    "type" : "album",
    "uri" : "spotify:album:5pwPik6VKu2r55aO2X7DYC"
  }, {
    "album_type" : "album",
    "available_markets" : [ "AD", "AR", "AT", "AU", "BE", "BG", "BO", "BR", "CH", "CL", "CO", "CR", "CY", "CZ", "DE", "DK", "DO", "EC", "EE", "ES", "FI", "FR", "GB", "GR", "GT", "HK", "HN", "HU", "ID", "IE", "IS", "IT", "LI", "LT", "LU", "LV", "MC", "MT", "MY", "NI", "NL", "NO", "NZ", "PA", "PE", "PH", "PL", "PT", "PY", "SE", "SG", "SK", "SV", "TR", "TW", "UY" ],
    "external_urls" : {
      "spotify" : "https://open.spotify.com/album/6GpIboFaXn8D287SqzrYDP"
    },
    "href" : "https://api.spotify.com/v1/albums/6GpIboFaXn8D287SqzrYDP",
    "id" : "6GpIboFaXn8D287SqzrYDP",
    "images" : [ {
      "height" : 640,
      "url" : "https://i.scdn.co/image/e889203d9c07b5061a62a4a118a1af20d7140eb6",
      "width" : 640
    }, {
      "height" : 300,
      "url" : "https://i.scdn.co/image/2e22591edd17478bf1cbbe0585e1fc8e77541589",
      "width" : 300
    }, {
      "height" : 64,
      "url" : "https://i.scdn.co/image/432fb51c8617a5b9ec3d8fb13aac8a566441b082",
      "width" : 64
    } ],
    "name" : "747 (International Deluxe Edition)",
    "type" : "album",
    "uri" : "spotify:album:6GpIboFaXn8D287SqzrYDP"
  }, {
    "album_type" : "album",
    "available_markets" : [ "DE", "FR", "GB", "IE" ],
    "external_urls" : {
      "spotify" : "https://open.spotify.com/album/6WsXJDrRY3dAjJQ9u8bmNb"
    },
    "href" : "https://api.spotify.com/v1/albums/6WsXJDrRY3dAjJQ9u8bmNb",
    "id" : "6WsXJDrRY3dAjJQ9u8bmNb",
    "images" : [ {
      "height" : 640,
      "url" : "https://i.scdn.co/image/3521f03e550f7a01654d05e784a8e0701a855900",
      "width" : 640
    }, {
      "height" : 300,
      "url" : "https://i.scdn.co/image/0b0ad88ba7990f4315defe1997c1b52e92ec24c9",
      "width" : 300
    }, {
      "height" : 64,
      "url" : "https://i.scdn.co/image/9a9bbbe9c27624768f39a620312dadde1f1f01b5",
      "width" : 64
    } ],
    "name" : "747 - Commentary",
    "type" : "album",
    "uri" : "spotify:album:6WsXJDrRY3dAjJQ9u8bmNb"
  }, {
    "album_type" : "album",
    "available_markets" : [ "CA", "MX", "US" ],
    "external_urls" : {
      "spotify" : "https://open.spotify.com/album/0T7IzVLNxBQMOc9Pw7qHeq"
    },
    "href" : "https://api.spotify.com/v1/albums/0T7IzVLNxBQMOc9Pw7qHeq",
    "id" : "0T7IzVLNxBQMOc9Pw7qHeq",
    "images" : [ {
      "height" : 640,
      "url" : "https://i.scdn.co/image/8c522abae28ba15012e426e6faeb4e6643fe7daf",
      "width" : 640
    }, {
      "height" : 300,
      "url" : "https://i.scdn.co/image/bd794d37d1ef64c0942d5d4907eb67b2cb37de20",
      "width" : 300
    }, {
      "height" : 64,
      "url" : "https://i.scdn.co/image/d568a2b82f047b142447575fdef3b35cdae502d7",
      "width" : 64
    } ],
    "name" : "747 - Commentary",
    "type" : "album",
    "uri" : "spotify:album:0T7IzVLNxBQMOc9Pw7qHeq"
  }, {
    "album_type" : "album",
    "available_markets" : [ "AU", "NZ" ],
    "external_urls" : {
      "spotify" : "https://open.spotify.com/album/5E7iYNnEN7kgtsXlr1APuY"
    },
    "href" : "https://api.spotify.com/v1/albums/5E7iYNnEN7kgtsXlr1APuY",
    "id" : "5E7iYNnEN7kgtsXlr1APuY",
    "images" : [ {
      "height" : 640,
      "url" : "https://i.scdn.co/image/1f544f092c7ae453684ac81489b476038594c383",
      "width" : 640
    }, {
      "height" : 300,
      "url" : "https://i.scdn.co/image/8760699e13369d776b805cc3ea7d78117ea11156",
      "width" : 300
    }, {
      "height" : 64,
      "url" : "https://i.scdn.co/image/e4c0b688bdb8063ece50b8a84d80c68de99d6417",
      "width" : 64
    } ],
    "name" : "Golden",
    "type" : "album",
    "uri" : "spotify:album:5E7iYNnEN7kgtsXlr1APuY"
  }, {
    "album_type" : "album",
    "available_markets" : [ "AR", "BO", "BR", "BG", "CA", "CL", "CO", "CR", "CY", "CZ", "DK", "DO", "EC", "EE", "SV", "FI", "FR", "GR", "GT", "HN", "HU", "IS", "IE", "IT", "LV", "LT", "LU", "MY", "MT", "MX", "NI", "PA", "PY", "PE", "PH", "PL", "PT", "SG", "SK", "ES", "SE", "TR", "UY", "US", "GB", "AD", "LI", "MC", "ID" ],
    "external_urls" : {
      "spotify" : "https://open.spotify.com/album/254bcFt3AV1O2B121GFD9S"
    },
    "href" : "https://api.spotify.com/v1/albums/254bcFt3AV1O2B121GFD9S",
    "id" : "254bcFt3AV1O2B121GFD9S",
    "images" : [ {
      "height" : 640,
      "url" : "https://i.scdn.co/image/d096a5a6c49dc89c9431eae54eabe9051aefc020",
      "width" : 640
    }, {
      "height" : 300,
      "url" : "https://i.scdn.co/image/7cea864ce9ea9877a7dbe8d577e94198c716fdba",
      "width" : 300
    }, {
      "height" : 64,
      "url" : "https://i.scdn.co/image/b303bfedeceedf592dac710289f557546e78c830",
      "width" : 64
    } ],
    "name" : "Golden",
    "type" : "album",
    "uri" : "spotify:album:254bcFt3AV1O2B121GFD9S"
  }, {
    "album_type" : "album",
    "available_markets" : [ "AT", "BE", "CH", "DE", "NL", "NO" ],
    "external_urls" : {
      "spotify" : "https://open.spotify.com/album/5r9ECscyry5ewDwTniOlGP"
    },
    "href" : "https://api.spotify.com/v1/albums/5r9ECscyry5ewDwTniOlGP",
    "id" : "5r9ECscyry5ewDwTniOlGP",
    "images" : [ {
      "height" : 640,
      "url" : "https://i.scdn.co/image/1f544f092c7ae453684ac81489b476038594c383",
      "width" : 640
    }, {
      "height" : 300,
      "url" : "https://i.scdn.co/image/8760699e13369d776b805cc3ea7d78117ea11156",
      "width" : 300
    }, {
      "height" : 64,
      "url" : "https://i.scdn.co/image/e4c0b688bdb8063ece50b8a84d80c68de99d6417",
      "width" : 64
    } ],
    "name" : "Golden",
    "type" : "album",
    "uri" : "spotify:album:5r9ECscyry5ewDwTniOlGP"
  }, {
    "album_type" : "album",
    "available_markets" : [ "CA", "MX", "US" ],
    "external_urls" : {
      "spotify" : "https://open.spotify.com/album/2HAVAd3YgUtXGpKO7kpXYx"
    },
    "href" : "https://api.spotify.com/v1/albums/2HAVAd3YgUtXGpKO7kpXYx",
    "id" : "2HAVAd3YgUtXGpKO7kpXYx",
    "images" : [ {
      "height" : 640,
      "url" : "https://i.scdn.co/image/809ef99c6c4af94a5828b145b8667c5afbb54fb8",
      "width" : 640
    }, {
      "height" : 300,
      "url" : "https://i.scdn.co/image/cf8aec53f3209acf714a4b5d26c7bd4d581611c8",
      "width" : 300
    }, {
      "height" : 64,
      "url" : "https://i.scdn.co/image/2d6c55fb5b9337d00f36adb5e09c349dd11a59dd",
      "width" : 64
    } ],
    "name" : "Golden: Commentary (Spotify Interview)",
    "type" : "album",
    "uri" : "spotify:album:2HAVAd3YgUtXGpKO7kpXYx"
  }, {
    "album_type" : "album",
    "available_markets" : [ "AR", "AU", "AT", "BE", "BO", "BR", "BG", "CL", "CO", "CR", "CY", "CZ", "DK", "DO", "DE", "EC", "EE", "SV", "FI", "FR", "GR", "GT", "HN", "HK", "HU", "IS", "IE", "IT", "LV", "LT", "LU", "MY", "MT", "MX", "NL", "NZ", "NI", "NO", "PA", "PY", "PE", "PH", "PL", "PT", "SG", "SK", "ES", "SE", "CH", "TW", "TR", "UY", "GB", "AD", "LI", "MC", "ID" ],
    "external_urls" : {
      "spotify" : "https://open.spotify.com/album/2m6JDPRCbpZeODrXia7paB"
    },
    "href" : "https://api.spotify.com/v1/albums/2m6JDPRCbpZeODrXia7paB",
    "id" : "2m6JDPRCbpZeODrXia7paB",
    "images" : [ {
      "height" : 640,
      "url" : "https://i.scdn.co/image/343a0cebb512cb87de7a8b18270af341ae053a90",
      "width" : 640
    }, {
      "height" : 300,
      "url" : "https://i.scdn.co/image/eb50facc5d5936523f4206c14d5ff1be2420138c",
      "width" : 300
    }, {
      "height" : 64,
      "url" : "https://i.scdn.co/image/adc92cc32902556c40139990c8c2f39672dcb556",
      "width" : 64
    } ],
    "name" : "Golden (Spotify Interview)",
    "type" : "album",
    "uri" : "spotify:album:2m6JDPRCbpZeODrXia7paB"
  }, {
    "album_type" : "album",
    "available_markets" : [ "AU", "NZ" ],
    "external_urls" : {
      "spotify" : "https://open.spotify.com/album/0HGCfak9Sps5KIxV6nigYX"
    },
    "href" : "https://api.spotify.com/v1/albums/0HGCfak9Sps5KIxV6nigYX",
    "id" : "0HGCfak9Sps5KIxV6nigYX",
    "images" : [ {
      "height" : 640,
      "url" : "https://i.scdn.co/image/28625889365643e835db12083efdf7f3e28e7fe1",
      "width" : 640
    }, {
      "height" : 300,
      "url" : "https://i.scdn.co/image/daccd1f0dd08786786e994cfeea712784c9d0057",
      "width" : 300
    }, {
      "height" : 64,
      "url" : "https://i.scdn.co/image/12892dbe23391cbb056be9f988755c7a87b94e88",
      "width" : 64
    } ],
    "name" : "Golden (Deluxe Edition)",
    "type" : "album",
    "uri" : "spotify:album:0HGCfak9Sps5KIxV6nigYX"
  }, {
    "album_type" : "album",
    "available_markets" : [ "AU" ],
    "external_urls" : {
      "spotify" : "https://open.spotify.com/album/2ipCDgtOxkpVmpdh7BI4xr"
    },
    "href" : "https://api.spotify.com/v1/albums/2ipCDgtOxkpVmpdh7BI4xr",
    "id" : "2ipCDgtOxkpVmpdh7BI4xr",
    "images" : [ {
      "height" : 640,
      "url" : "https://i.scdn.co/image/28625889365643e835db12083efdf7f3e28e7fe1",
      "width" : 640
    }, {
      "height" : 300,
      "url" : "https://i.scdn.co/image/daccd1f0dd08786786e994cfeea712784c9d0057",
      "width" : 300
    }, {
      "height" : 64,
      "url" : "https://i.scdn.co/image/12892dbe23391cbb056be9f988755c7a87b94e88",
      "width" : 64
    } ],
    "name" : "Golden (Deluxe Edition)",
    "type" : "album",
    "uri" : "spotify:album:2ipCDgtOxkpVmpdh7BI4xr"
  }, {
    "album_type" : "album",
    "available_markets" : [ "CA", "MX", "US" ],
    "external_urls" : {
      "spotify" : "https://open.spotify.com/album/1tYJvi3YlS26yI7Wf8nlcx"
    },
    "href" : "https://api.spotify.com/v1/albums/1tYJvi3YlS26yI7Wf8nlcx",
    "id" : "1tYJvi3YlS26yI7Wf8nlcx",
    "images" : [ {
      "height" : 640,
      "url" : "https://i.scdn.co/image/5377d9293acd10a083c61bb05bce09d2d530f807",
      "width" : 640
    }, {
      "height" : 300,
      "url" : "https://i.scdn.co/image/db05b13177ed5fd7b35acc5217b52843941afdad",
      "width" : 300
    }, {
      "height" : 64,
      "url" : "https://i.scdn.co/image/3a2150045b7289726b51e3a210891d6ef8aa1f7b",
      "width" : 64
    } ],
    "name" : "Golden (Deluxe Edition)",
    "type" : "album",
    "uri" : "spotify:album:1tYJvi3YlS26yI7Wf8nlcx"
  }, {
    "album_type" : "album",
    "available_markets" : [ "AR", "AU", "AT", "BE", "BO", "BR", "BG", "CA", "CL", "CO", "CR", "CY", "CZ", "DK", "DO", "DE", "EC", "EE", "SV", "FI", "FR", "GR", "GT", "HN", "HK", "HU", "IS", "IE", "IT", "LV", "LT", "LU", "MY", "MT", "MX", "NL", "NZ", "NI", "NO", "PA", "PY", "PE", "PH", "PL", "PT", "SG", "SK", "ES", "SE", "CH", "TW", "TR", "UY", "US", "GB", "AD", "LI", "MC", "ID" ],
    "external_urls" : {
      "spotify" : "https://open.spotify.com/album/3XfEVMLn6H6yYVt74791Gf"
    },
    "href" : "https://api.spotify.com/v1/albums/3XfEVMLn6H6yYVt74791Gf",
    "id" : "3XfEVMLn6H6yYVt74791Gf",
    "images" : [ {
      "height" : 640,
      "url" : "https://i.scdn.co/image/46d9dbd8e74bf7ec55874314d3a178bdaf049e3e",
      "width" : 640
    }, {
      "height" : 300,
      "url" : "https://i.scdn.co/image/344ad6914f24c22553b77f02136501467235eccc",
      "width" : 300
    }, {
      "height" : 64,
      "url" : "https://i.scdn.co/image/0d89e8b79f90286fa76907aa229cc2632e6ba211",
      "width" : 64
    } ],
    "name" : "On This Winter's Night - Interview",
    "type" : "album",
    "uri" : "spotify:album:3XfEVMLn6H6yYVt74791Gf"
  }, {
    "album_type" : "album",
    "available_markets" : [ "CA", "US" ],
    "external_urls" : {
      "spotify" : "https://open.spotify.com/album/0TUwmnyoasxEY821BgOfel"
    },
    "href" : "https://api.spotify.com/v1/albums/0TUwmnyoasxEY821BgOfel",
    "id" : "0TUwmnyoasxEY821BgOfel",
    "images" : [ {
      "height" : 640,
      "url" : "https://i.scdn.co/image/97e187619857473fa7010dbb2b906d785e25f540",
      "width" : 640
    }, {
      "height" : 300,
      "url" : "https://i.scdn.co/image/1b9d902b5329f6aec58a79ac678eb5e871beccc9",
      "width" : 300
    }, {
      "height" : 64,
      "url" : "https://i.scdn.co/image/7bca8f1b333e2209d68a022313c7016a0917f3f7",
      "width" : 64
    } ],
    "name" : "On This Winter's Night",
    "type" : "album",
    "uri" : "spotify:album:0TUwmnyoasxEY821BgOfel"
  }, {
    "album_type" : "album",
    "available_markets" : [ "AU", "NZ" ],
    "external_urls" : {
      "spotify" : "https://open.spotify.com/album/36QBeT7tm3yKOSGaR3AUty"
    },
    "href" : "https://api.spotify.com/v1/albums/36QBeT7tm3yKOSGaR3AUty",
    "id" : "36QBeT7tm3yKOSGaR3AUty",
    "images" : [ {
      "height" : 640,
      "url" : "https://i.scdn.co/image/97e187619857473fa7010dbb2b906d785e25f540",
      "width" : 640
    }, {
      "height" : 300,
      "url" : "https://i.scdn.co/image/1b9d902b5329f6aec58a79ac678eb5e871beccc9",
      "width" : 300
    }, {
      "height" : 64,
      "url" : "https://i.scdn.co/image/7bca8f1b333e2209d68a022313c7016a0917f3f7",
      "width" : 64
    } ],
    "name" : "On This Winter's Night",
    "type" : "album",
    "uri" : "spotify:album:36QBeT7tm3yKOSGaR3AUty"
  }, {
    "album_type" : "album",
    "available_markets" : [ "AR", "AT", "BE", "BO", "BR", "BG", "CL", "CO", "CR", "CY", "CZ", "DK", "DO", "DE", "EC", "EE", "SV", "FI", "FR", "GR", "GT", "HN", "HK", "HU", "IS", "IE", "IT", "LV", "LT", "LU", "MY", "MT", "MX", "NL", "NI", "NO", "PA", "PY", "PE", "PH", "PL", "PT", "SG", "SK", "ES", "SE", "CH", "TW", "TR", "UY", "GB", "AD", "LI", "MC", "ID" ],
    "external_urls" : {
      "spotify" : "https://open.spotify.com/album/7CExGyw2w352ESyS0dzsSM"
    },
    "href" : "https://api.spotify.com/v1/albums/7CExGyw2w352ESyS0dzsSM",
    "id" : "7CExGyw2w352ESyS0dzsSM",
    "images" : [ {
      "height" : 640,
      "url" : "https://i.scdn.co/image/97e187619857473fa7010dbb2b906d785e25f540",
      "width" : 640
    }, {
      "height" : 300,
      "url" : "https://i.scdn.co/image/1b9d902b5329f6aec58a79ac678eb5e871beccc9",
      "width" : 300
    }, {
      "height" : 64,
      "url" : "https://i.scdn.co/image/7bca8f1b333e2209d68a022313c7016a0917f3f7",
      "width" : 64
    } ],
    "name" : "On This Winter's Night",
    "type" : "album",
    "uri" : "spotify:album:7CExGyw2w352ESyS0dzsSM"
  }, {
    "album_type" : "album",
    "available_markets" : [ "AU", "NZ" ],
    "external_urls" : {
      "spotify" : "https://open.spotify.com/album/7MMV5o5BBYxMK4ycvhVnul"
    },
    "href" : "https://api.spotify.com/v1/albums/7MMV5o5BBYxMK4ycvhVnul",
    "id" : "7MMV5o5BBYxMK4ycvhVnul",
    "images" : [ {
      "height" : 640,
      "url" : "https://i.scdn.co/image/7011e830a57be3ec2d99c610e78d3e442a5c5eed",
      "width" : 640
    }, {
      "height" : 300,
      "url" : "https://i.scdn.co/image/d61b5a32801aa052eeec51a3eab5151c0dcddd72",
      "width" : 300
    }, {
      "height" : 64,
      "url" : "https://i.scdn.co/image/1d4dbdbf590c3a7dc208c3cf498d5fcdba55e41d",
      "width" : 64
    } ],
    "name" : "Own The Night",
    "type" : "album",
    "uri" : "spotify:album:7MMV5o5BBYxMK4ycvhVnul"
  } ],
  "limit" : 20,
  "next" : "https://api.spotify.com/v1/artists/32WkQRZEVKSzVAAYqukAEA/albums?offset=20&limit=20&album_type=single,album,compilation,appears_on,ep",
  "offset" : 0,
  "previous" : null,
  "total" : 147
}
